PSYC344 - Lab 3 - Descriptive Statisitcs
…
Preparing your dataset: Data Cleaning and Descriptives

In this lab, you will learn how to clean up a dataset to prepare it for analyses.

Task 1. Initial cleaning of a dataset

We will use a provided dataset for this task. Note that this file is still cleaned up to some extent. When you download a completed survey from Qualtrics, it will have many additional columns that are mostly not needed for data analysis and we will not normally use them.

Q1. Download the Lab 03 Dataset.xlsx and Lab 03 Codebook.xlsx files from Learn. The first file is the dataset (note that some small modifications have been made to protect respondents’ privacy). Responses have also been coded according to the codebook file—take a few minutes to read through the codebook so you understand this dataset.

df <- readxl::read_xlsx("Lab 03 Dataset.xlsx")
df

# A tibble: 140 × 30
   RESP_ID     COV_1 COV_2 COV_3 COV_4 COV_9a COV_9b COV_9c COV_9d COV_9e COV_10
   <chr>       <chr> <chr> <chr> <chr> <chr>  <chr>  <chr>  <chr>  <chr>  <chr> 
 1 Response ID Just… Just… Just… On a… Ease … Ease … Ease … Ease … Ease … How d…
 2 1           2     2     2     8.30… 3      <NA>   4      <NA>   <NA>   4     
 3 2           3     2     3     9.19… 3      <NA>   3      <NA>   <NA>   3     
 4 3           2     2     2     5.7   5      5      4      4      <NA>   4     
 5 4           1     1     2     7     2      1      4      3      <NA>   3     
 6 5           1     1     2     5     3      <NA>   2      4      <NA>   5     
 7 6           3     4     2     6.1   <NA>   <NA>   4      5      <NA>   2     
 8 7           1     1     3     7.1   <NA>   <NA>   <NA>   <NA>   <NA>   4     
 9 8           1     2     3     10    <NA>   <NA>   <NA>   <NA>   <NA>   3     
10 9           4     4     4     8.30… 3      3      <NA>   <NA>   <NA>   4     
# … with 130 more rows, and 19 more variables: FIN_1_1 <chr>, FIN_1_2 <chr>,
#   FIN_1_3 <chr>, FIN_1_4 <chr>, FIN_1_5 <chr>, FIN_1_6 <chr>, FIN_1_7 <chr>,
#   FIN_1_8 <chr>, FIN_2_1 <chr>, FIN_2_2 <chr>, FIN_2_3 <chr>, FIN_2_4 <chr>,
#   FIN_2_5 <chr>, FIN_2_6 <chr>, FIN_2_7 <chr>, FIN_2_8 <chr>, FIN_2_9 <chr>,
#   Age_coded <chr>, Gender <chr>
…
