PSYC344 - Lab 4: Exploratory and Confirmatory Factor Analyses
…
Task 1: Exploratory Factor Analysis – Deciding on a factor structure

Q1. Import the dataset into R. Go through to ensure that the data variable information is correct for all the variables (i.e., measure type, data type, missing values).

library(readxl)
df <- read_xlsx("Lab 4 Dataset.xlsx")
df

# A tibble: 2,571 × 24
   factor_anal…¹ Quest…² Quest…³ Quest…⁴ Quest…⁵ Quest…⁶ Quest…⁷ Quest…⁸ Quest…⁹
           <dbl>   <dbl>   <dbl>   <dbl>   <dbl>   <dbl>   <dbl>   <dbl>   <dbl>
 1             1       2       1       4       2       2       2       3       1
 2             1       1       1       4       3       2       2       2       2
 3             1       2       3       2       2       4       1       2       2
 4             1       3       1       1       4       3       3       4       2
 5             1       2       1       3       2       2       3       3       2
 6             1       2       1       3       2       4       4       4       2
 7             1       2       3       3       2       2       2       2       2
 8             1       2       2       3       2       2       2       2       2
 9             1       3       3       1       4       5       3       5       5
10             1       2       4       4       3       2       1       2       2
# … with 2,561 more rows, 15 more variables: Question_9 <dbl>,
#   Question_10 <dbl>, Question_11 <dbl>, Question_12 <dbl>, Question_13 <dbl>,
#   Question_14 <dbl>, Question_15 <dbl>, Question_16 <dbl>, Question_17 <dbl>,
#   Question_18 <dbl>, Question_19 <dbl>, Question_20 <dbl>, Question_21 <dbl>,
#   Question_22 <dbl>, Question_23 <dbl>, and abbreviated variable names
#   ¹​factor_analysis_sample, ²​Question_1, ³​Question_2, ⁴​Question_3,
#   ⁵​Question_4, ⁶​Question_5, ⁷​Question_6, ⁸​Question_7, ⁹​Question_8
…
